{
    "hfov": 100.0,
    "type": "multires",
    "multiRes": {
        "path": "/%l/%s%y_%x",
        "fallbackPath": "/fallback/%s",
        "extension": "jpg",
        "tileResolution": 512,
        "maxLevel": 5,
        "cubeResolution": 7016
    }
}